Calculate table of percentages or N of response distribution for survey items, survey weighted, disaggregated — table_weightedpct • whomds
…
Other table functions: 
table_basicstats(),
table_unweightedpctn()

    Examples

table_weightedpct(df_adults, 
    vars_ids = c("HHID", "PSU"),
    vars_strata = "strata",
    vars_weights = "weight",
    formula_vars = paste0("EF",1:10),
    formula_vars_levels = 1:5,
    by_vars = "sex")
#> Warning: You may have issues with lonely PSUs if you have not set: options(survey.lonely.psu = "adjust")
#> # A tibble: 100 × 4
#> # Groups:   sex, item [20]
#>    sex    item  resp   prop
#>    <fct>  <ord> <fct> <dbl>
#>  1 Female EF1   1     44.6 
#>  2 Female EF1   2     15.3 
#>  3 Female EF1   3     15.4 
#>  4 Female EF1   4     10.5 
#>  5 Female EF1   5     14.1 
#>  6 Female EF10  1     47.2 
#>  7 Female EF10  2     10.7 
#>  8 Female EF10  3     20.6 
#>  9 Female EF10  4     11.8 
#> 10 Female EF10  5      9.81
#> # … with 90 more rows
…
