Compute unweighted percent and N for multiple variables, disaggregated — table_unweightedpctn • whomds
…
#>  1 sex      Female      50.6  1265
#>  2 sex      Male        49.4  1235
#>  3 age_cat  18-24        7.6   191
#>  4 age_cat  25-39       18     449
#>  5 age_cat  40-64       31.7   792
#>  6 age_cat  64-100      42.7  1068
#>  7 work_cat N           41.8  1045
#>  8 work_cat Y           58.2  1455
#>  9 edu_cat  None        20.2   504
#> 10 edu_cat  Elementary  39.8   996
#> 11 edu_cat  Secondary   25.2   629
#> 12 edu_cat  University  14.8   371
table_unweightedpctn(df_adults, vars_demo = c("sex", "age_cat", "work_cat", "edu_cat"), 
group_by_var = "disability_cat")
#> # A tibble: 48 × 5
#>    item    demo   disability_cat   pct     n
#>    <chr>   <ord>  <ord>          <dbl> <dbl>
#>  1 sex     Female No              52.5   287
#>  2 sex     Male   No              47.5   260
#>  3 sex     Female Mild            53.5   250
#>  4 sex     Male   Mild            46.5   217
#>  5 sex     Female Moderate        49.9   376
#>  6 sex     Male   Moderate        50.1   377
#>  7 sex     Female Severe          49.1   209
#>  8 sex     Male   Severe          50.9   217
#>  9 age_cat 18-24  No               6.9    38
#> 10 age_cat 25-39  No              19.7   108
#> # ℹ 38 more rows
…
