6 - Después de Análisis Rasch: Análisis descriptivo • whomds
…
table_weightedpct(
  df = df_adults_noNA,
  vars_ids = "PSU",
  vars_strata = "strata",
  vars_weights = "weight",
  formula_vars = paste0("EF", 1:12),
  formula_vars_levels = 1:5,
  by_vars = "disability_cat",
  spread_key = NULL,
  spread_value = "prop",
  arrange_vars = NULL,
  willfilter = NULL
  )
#> # A tibble: 236 × 4
#> # Groups:   disability_cat, item [48]
#>    disability_cat item  resp   prop
#>    <ord>          <ord> <fct> <dbl>
#>  1 No             EF1   1      42.1
#>  2 No             EF1   2      15.8
#>  3 No             EF1   3      15.2
#>  4 No             EF1   4      12.4
#>  5 No             EF1   5      14.6
#>  6 No             EF10  1      44.2
#>  7 No             EF10  2      10.5
#>  8 No             EF10  3      22.8
#>  9 No             EF10  4      11.6
#> 10 No             EF10  5      10.9
#> # … with 226 more rows
…
table_weightedpct(
  df = df_adults_noNA,
  vars_ids = "PSU",
  vars_strata = "strata",
  vars_weights = "weight",
  formula_vars = paste0("EF", 1:12),
  formula_vars_levels = 1:5,
  by_vars = "disability_cat",
  spread_key = "disability_cat",
  spread_value = "prop",
  arrange_vars = NULL,
  willfilter = NULL
  )
#> # A tibble: 60 × 6
#> # Groups:   item [12]
#>    item  resp     No  Mild Moderate Severe
#>    <ord> <fct> <dbl> <dbl>    <dbl>  <dbl>
#>  1 EF1   1      42.1 47.5     43.4   46.6 
#>  2 EF1   2      15.8 15.3     17.2   11.9 
#>  3 EF1   3      15.2 14.2     14.3   15.0 
#>  4 EF1   4      12.4  9.62    11.2   10.4 
#>  5 EF1   5      14.6 13.3     13.8   16.1 
#>  6 EF10  1      44.2 49.9     49.3   49.7 
#>  7 EF10  2      10.5 12.6     10.3    9.84
#>  8 EF10  3      22.8 16.0     18.4   17.2 
#>  9 EF10  4      11.6 11.9     14.6   13.3 
#> 10 EF10  5      10.9  9.64     7.40   9.87
#> # … with 50 more rows
…
table_weightedpct(
  df = df_adults_noNA,
  vars_ids = "PSU",
  vars_strata = "strata",
  vars_weights = "weight",
  formula_vars = paste0("EF", 1:12),
  formula_vars_levels = 1:5,
  by_vars = c("disability_cat", "sex"),
  spread_key = "disability_cat",
  spread_value = "prop",
  arrange_vars = NULL,
  willfilter = TRUE,
  resp == 5
  )
#> # A tibble: 24 × 7
#> # Groups:   sex, item [24]
#>    sex    item  resp     No  Mild Moderate Severe
#>    <fct>  <ord> <fct> <dbl> <dbl>    <dbl>  <dbl>
#>  1 Female EF1   5     13.2  14.7     13.1   15.4 
#>  2 Female EF10  5     11.1   9.91     6.41   9.62
#>  3 Female EF11  5      1.15  1.24     2.26   2.57
#>  4 Female EF12  5      3.60 NA       NA     NA   
#>  5 Female EF2   5      7.44  6.21     6.18   6.94
#>  6 Female EF3   5      4.60  6.32     4.02   4.62
#>  7 Female EF4   5      3.19  3.20     3.00   2.34
#>  8 Female EF5   5      8.61 13.1      9.77  10.3 
#>  9 Female EF6   5      3.25  3.76     2.29   2.89
#> 10 Female EF7   5      4.44  4.12     2.76   2.34
#> # … with 14 more rows
…
table_weightedpct(
  df = df_adults_noNA,
  vars_ids = "PSU",
  vars_strata = "strata",
  vars_weights = "weight",
  formula_vars = paste0("EF", 1:12),
  formula_vars_levels = 1:5,
  by_vars = c("disability_cat", "sex"),
  spread_key = "resp",
  spread_value = "prop",
  arrange_vars = NULL,
  willfilter = FALSE,
  disability_cat, sex, item, problems = `4`+`5`
  )
#> # A tibble: 96 × 4
#> # Groups:   disability_cat, sex, item [96]
#>    disability_cat sex    item  problems
#>    <ord>          <fct>  <ord>    <dbl>
#>  1 No             Female EF1      27.2 
#>  2 No             Female EF10     21.6 
#>  3 No             Female EF11      6.44
#>  4 No             Female EF12      6.69
#>  5 No             Female EF2      11.6 
#>  6 No             Female EF3       8.53
#>  7 No             Female EF4       5.96
#>  8 No             Female EF5      18.5 
#>  9 No             Female EF6       8.12
#> 10 No             Female EF7      11.1 
#> # … with 86 more rows
…
  df = df_adults_noNA,
  vars_ids = "PSU",
  vars_strata = "strata",
  vars_weights = "weight",
  formula_vars = paste0("EF", 1:12),
  formula_vars_levels = 1:5,
  by_vars = c("disability_cat", "sex"),
  spread_key = "resp",
  spread_value = "prop",
  arrange_vars = NULL,
  willfilter = FALSE,
  disability_cat, sex, item, problems = `4`+`5`
  ) %>% 
    pivot_wider(names_from = disability_cat, values_from = problems)
#> # A tibble: 24 × 6
#> # Groups:   sex, item [24]
#>    sex    item     No  Mild Moderate Severe
#>    <fct>  <ord> <dbl> <dbl>    <dbl>  <dbl>
#>  1 Female EF1   27.2  25.0     22.2   25.2 
#>  2 Female EF10  21.6  19.7     22.6   20.6 
#>  3 Female EF11   6.44  5.19     5.98   8.61
#>  4 Female EF12   6.69 NA       NA     NA   
#>  5 Female EF2   11.6  11.2     11.4   13.8 
#>  6 Female EF3    8.53 11.6      7.00   9.36
#>  7 Female EF4    5.96  4.69     6.35   4.37
#>  8 Female EF5   18.5  24.3     17.8   21.8 
#>  9 Female EF6    8.12  8.72     5.06   5.33
#> 10 Female EF7   11.1   7.58     9.06   8.69
#> # … with 14 more rows
…
